DataSHIELD Workshop: Data Science Without Borders – DataSHIELD Workshop
…
Using dsHelper to retrieve statistics in a neater format.

As you may have noticed, some operations which are more straightforward in R can be more complicated in datashield. To help with this, the dsHelper package allows you to do some common operations in fewer lines of code. DsHelper is an entirely serverside package - it contains only clientside functions which call DataSHIELD functions serverside.

We have seen datashield has a range of functions to retrieve statistics, but is limited in that (i) you need to use different functions for different statistics, (ii) you can only get stats for one variable at a time. dh.GetStats returns many useful stats in a tibble, and allows you to retrieve stats for multiple variables at a time.

neat_stats <- dh.getStats(
    df = "D",
  vars = c("GENDER", "LAB_TRIG", "LAB_HDL", "DIS_CVA", "DIS_DIAB"))
           
neat_stats

$categorical
# A tibble: 27 x 10
   variable cohort   category value cohort_n valid_n missing_n perc_valid
   <chr>    <chr>    <fct>    <int>    <int>   <int>     <int>      <dbl>
 1 DIS_CVA  combined 0         5248     5251    5251         0      99.9 
 2 DIS_CVA  combined 1            3     5251    5251         0       0.06
 3 DIS_CVA  combined <NA>         0     5251      NA        NA      NA   
 4 DIS_DIAB combined 0         5174     5251    5251         0      98.5 
 5 DIS_DIAB combined 1           77     5251    5251         0       1.47
 6 DIS_DIAB combined <NA>         0     5251      NA        NA      NA   
 7 GENDER   combined 0         2677     5251    5251         0      51.0 
 8 GENDER   combined 1         2574     5251    5251         0      49.0 
 9 GENDER   combined <NA>         0     5251      NA        NA      NA   
10 DIS_CVA  France   0         2163     2163    2163         0     100   
# i 17 more rows
# i 2 more variables: perc_missing <dbl>, perc_total <dbl>
…
